C:\Users\Niels\Desktop\School\Semester 3\Big_Idea\SnakeMultiplayer\snake.multiplayer.client\src\main\java\main\MultiplayerGame.java
C:\Users\Niels\Desktop\School\Semester 3\Big_Idea\SnakeMultiplayer\snake.multiplayer.client\src\main\java\Websockets\DTO\SnakeData.java
C:\Users\Niels\Desktop\School\Semester 3\Big_Idea\SnakeMultiplayer\snake.multiplayer.client\src\main\java\Factories\DtoFactory.java
C:\Users\Niels\Desktop\School\Semester 3\Big_Idea\SnakeMultiplayer\snake.multiplayer.client\src\main\java\Websockets\WebSocketStatus.java
C:\Users\Niels\Desktop\School\Semester 3\Big_Idea\SnakeMultiplayer\snake.multiplayer.client\src\main\java\Models\Player.java
C:\Users\Niels\Desktop\School\Semester 3\Big_Idea\SnakeMultiplayer\snake.multiplayer.client\src\main\java\main\Game.java
C:\Users\Niels\Desktop\School\Semester 3\Big_Idea\SnakeMultiplayer\snake.multiplayer.client\src\main\java\Models\Direction.java
C:\Users\Niels\Desktop\School\Semester 3\Big_Idea\SnakeMultiplayer\snake.multiplayer.client\src\main\java\Models\Tile.java
C:\Users\Niels\Desktop\School\Semester 3\Big_Idea\SnakeMultiplayer\snake.multiplayer.client\src\main\java\main\Authorization.java
C:\Users\Niels\Desktop\School\Semester 3\Big_Idea\SnakeMultiplayer\snake.multiplayer.client\src\main\java\Websockets\DTO\DirectionData.java
C:\Users\Niels\Desktop\School\Semester 3\Big_Idea\SnakeMultiplayer\snake.multiplayer.client\src\main\java\Websockets\WebSocketAction.java
C:\Users\Niels\Desktop\School\Semester 3\Big_Idea\SnakeMultiplayer\snake.multiplayer.client\src\main\java\Websockets\DTO\GameData.java
C:\Users\Niels\Desktop\School\Semester 3\Big_Idea\SnakeMultiplayer\snake.multiplayer.client\src\main\java\Models\Lobby.java
C:\Users\Niels\Desktop\School\Semester 3\Big_Idea\SnakeMultiplayer\snake.multiplayer.client\src\main\java\Websockets\WebSocketMessage.java
C:\Users\Niels\Desktop\School\Semester 3\Big_Idea\SnakeMultiplayer\snake.multiplayer.client\src\main\java\Models\Snake.java
C:\Users\Niels\Desktop\School\Semester 3\Big_Idea\SnakeMultiplayer\snake.multiplayer.client\src\main\java\main\Main.java
C:\Users\Niels\Desktop\School\Semester 3\Big_Idea\SnakeMultiplayer\snake.multiplayer.client\src\main\java\Websockets\ClientWebSocket.java
